{
  "MI124918": {
    "sustainableProcurementData": {
        "ecovadisRating": {
            "hasRating": "true",
            "hasMedal": "true",
            "medalType": "gold",
            "medalIcon": {
                "rasterUri": "https://www.ecovadis-survey.com/clientflags/ecovadis.api/png/medals_gold.png",
                "vectorUri": "https://www.ecovadis-survey.com/clientflags/ecovadis.api/vector/medals_gold.svg"
            },
            "issueDate": "2019-03-20",
            "expiryDate": "2020-03-20"
        }
    },
    "companyData": {
        "EVId": {
            "value": "MI124918"
        },
        "companyName": "ECOVADIS SAS (GROUP)",
        "countryCode": "France",
        "countryName": "FR",
        "cityName": "Paris",
        "zipCode": "75116",
        "companyWebsite": "www.ecovadis.com"
    }
  }
}