<?xml version="1.0" encoding="UTF-8"?>
<svg width="410px" height="46px" viewBox="0 0 410 46" version="1.1" xmlns="http://www.w3.org/2000/svg" xmlns:xlink="http://www.w3.org/1999/xlink">
    <!-- Generator: Sketch 56.3 (81716) - https://sketch.com -->
    <title>fhr-scale</title>
    <desc>Created with Sketch.</desc>
    <g id="Page-1" stroke="none" stroke-width="1" fill="none" fill-rule="evenodd">
        <g id="TYS-RR-Panel" transform="translate(-20.000000, -264.000000)">
            <g id="footer-content" transform="translate(20.000000, 246.000000)">
                <g id="fhr-scale" transform="translate(0.000000, 17.000000)">
                    <rect id="BG" fill="#6FBFEA" transform="translate(369.000000, 20.500000) rotate(-180.000000) translate(-369.000000, -20.500000) " x="328" y="18" width="82" height="5"></rect>
                    <rect id="color" fill="#46A840" transform="translate(287.000000, 20.500000) rotate(-180.000000) translate(-287.000000, -20.500000) " x="246" y="18" width="82" height="5"></rect>
                    <rect id="color" fill="#F7E856" transform="translate(205.000000, 20.500000) rotate(-180.000000) translate(-205.000000, -20.500000) " x="164" y="18" width="82" height="5"></rect>
                    <rect id="color" fill="#F5B353" transform="translate(123.000000, 20.500000) rotate(-180.000000) translate(-123.000000, -20.500000) " x="82" y="18" width="82" height="5"></rect>
                    <rect id="color" fill="#ED4C4A" transform="translate(41.000000, 20.500000) rotate(-180.000000) translate(-41.000000, -20.500000) " x="0" y="18" width="82" height="5"></rect>
                    <text id="Very-Low-Risk-81-100" font-family="Helvetica-Bold, Helvetica" font-size="9" font-weight="bold" fill="#000000">
                        <tspan x="328" y="35">Very Low Risk</tspan>
                        <tspan x="328" y="46" font-family="Helvetica" font-weight="normal">81-100</tspan>
                        <tspan x="328" y="65.1" font-family="Helvetica" font-weight="normal"></tspan>
                        <tspan x="328" y="84.2" font-family="Helvetica" font-weight="normal"></tspan>
                        <tspan x="328" y="103.3" font-family="Helvetica" font-weight="normal"> </tspan>
                    </text>
                    <text id="Low-Risk-61-80" font-family="Helvetica-Bold, Helvetica" font-size="9" font-weight="bold" fill="#000000">
                        <tspan x="246" y="35">Low Risk</tspan>
                        <tspan x="246" y="46" font-family="Helvetica" font-weight="normal">61-80</tspan>
                        <tspan x="246" y="65.1" font-family="Helvetica" font-weight="normal"></tspan>
                        <tspan x="246" y="84.2" font-family="Helvetica" font-weight="normal"></tspan>
                        <tspan x="246" y="103.3" font-family="Helvetica" font-weight="normal"> </tspan>
                    </text>
                    <text id="Medium-Risk-41-60" font-family="Helvetica-Bold, Helvetica" font-size="9" font-weight="bold" fill="#000000">
                        <tspan x="164" y="35">Medium Risk</tspan>
                        <tspan x="164" y="46" font-family="Helvetica" font-weight="normal">41-60</tspan>
                        <tspan x="164" y="65.1" font-family="Helvetica" font-weight="normal"></tspan>
                        <tspan x="164" y="84.2" font-family="Helvetica" font-weight="normal"></tspan>
                        <tspan x="164" y="103.3" font-family="Helvetica" font-weight="normal"> </tspan>
                    </text>
                    <text id="High-Risk-21-40" font-family="Helvetica-Bold, Helvetica" font-size="9" font-weight="bold" fill="#000000">
                        <tspan x="82" y="35">High Risk</tspan>
                        <tspan x="82" y="46" font-family="Helvetica" font-weight="normal">21-40</tspan>
                        <tspan x="82" y="65.1" font-family="Helvetica" font-weight="normal"></tspan>
                        <tspan x="82" y="84.2" font-family="Helvetica" font-weight="normal"></tspan>
                        <tspan x="82" y="103.3" font-family="Helvetica" font-weight="normal"> </tspan>
                    </text>
                    <text id="Very-High-Risk-0-20" font-family="Helvetica-Bold, Helvetica" font-size="9" font-weight="bold" fill="#000000">
                        <tspan x="0" y="35">Very High Risk</tspan>
                        <tspan x="0" y="46" font-family="Helvetica" font-weight="normal">0-20</tspan>
                    </text>
                    <text id="Financial-Health-Rat" font-family="Helvetica" font-size="11" font-weight="normal" fill="#000000">
                        <tspan x="0" y="10">Financial Health Rating (FHR) Scale</tspan>
                        <tspan x="0" y="23"></tspan>
                        <tspan x="0" y="45"></tspan>
                        <tspan x="0" y="67"></tspan>
                        <tspan x="0" y="89"> </tspan>
                    </text>
                </g>
            </g>
        </g>
    </g>
</svg>